…
## Wide to long

``` r
pulse_data = 
  haven::read_sas("./data/public_pulse_data.sas7bdat") %>%
  janitor::clean_names()

pulse_data
```

    ## # A tibble: 1,087 x 7
    ##       id   age sex   bdi_score_bl bdi_score_01m bdi_score_06m bdi_score_12m
    ##    <dbl> <dbl> <chr>        <dbl>         <dbl>         <dbl>         <dbl>
    ##  1 10003  48.0 male             7             1             2             0
    ##  2 10015  72.5 male             6            NA            NA            NA
    ##  3 10022  58.5 male            14             3             8            NA
    ##  4 10026  72.7 male            20             6            18            16
    ##  5 10035  60.4 male             4             0             1             2
    ##  6 10050  84.7 male             2            10            12             8
    ##  7 10078  31.3 male             4             0            NA            NA
    ##  8 10088  56.9 male             5            NA             0             2
    ##  9 10091  76.0 male             0             3             4             0
    ## 10 10092  74.2 fema…           10             2            11             6
    ## # … with 1,077 more rows

``` r
pivot_longer(
  pulse_data,
  bdi_score_bl:bdi_score_12m,
  names_to = "visit",
  values_to = "bdi"
)
```

    ## # A tibble: 4,348 x 5
    ##       id   age sex   visit           bdi
    ##    <dbl> <dbl> <chr> <chr>         <dbl>
    ##  1 10003  48.0 male  bdi_score_bl      7
    ##  2 10003  48.0 male  bdi_score_01m     1
    ##  3 10003  48.0 male  bdi_score_06m     2
    ##  4 10003  48.0 male  bdi_score_12m     0
    ##  5 10015  72.5 male  bdi_score_bl      6
    ##  6 10015  72.5 male  bdi_score_01m    NA
    ##  7 10015  72.5 male  bdi_score_06m    NA
    ##  8 10015  72.5 male  bdi_score_12m    NA
    ##  9 10022  58.5 male  bdi_score_bl     14
    ## 10 10022  58.5 male  bdi_score_01m     3
    ## # … with 4,338 more rows
…
``` r
litters_data = 
  read_csv("./data/FAS_litters.csv", col_types = "ccddiiii") %>% 
  janitor::clean_names() %>%
  separate(group, into = c("dose", "day_of_tx"), sep = 3) %>%
  mutate(
    dose = str_to_lower(dose),
    wt_gain = gd18_weight - gd0_weight) %>%
  arrange(litter_number)

litters_data
```

    ## # A tibble: 49 x 10
    ##    dose  day_of_tx litter_number gd0_weight gd18_weight gd_of_birth
    ##    <chr> <chr>     <chr>              <dbl>       <dbl>       <int>
    ##  1 con   7         #1/2/95/2           27          42            19
    ##  2 con   7         #1/5/3/83/3-…       NA          NA            20
    ##  3 con   8         #1/6/2/2/95-2       NA          NA            20
    ##  4 mod   7         #1/82/3-2           NA          NA            19
    ##  5 low   8         #100                20          39.2          20
    ##  6 low   7         #101                23.8        42.7          20
    ##  7 low   7         #102                22.6        43.3          20
    ##  8 mod   7         #103                21.4        42.1          19
    ##  9 mod   7         #106                21.7        37.8          20
    ## 10 low   7         #107                22.6        42.4          20
    ## # … with 39 more rows, and 4 more variables: pups_born_alive <int>,
    ## #   pups_dead_birth <int>, pups_survive <int>, wt_gain <dbl>
…
We could hypothetically join by more than one column name: fas\_data =
left\_join(pup\_data, litter\_data, by = c(“litter\_number”,
“something\_else”)

A left join and full join will NOT give you the same number of rows (we
get two extra):

``` r
full_join(pup_data, litter_data, by = "litter_number")
```

    ## # A tibble: 315 x 13
    ##    litter_number sex   pd_ears pd_eyes pd_pivot pd_walk group gd0_weight
    ##    <chr>         <chr>   <int>   <int>    <int>   <int> <chr>      <dbl>
    ##  1 #85           male        4      13        7      11 con7        19.7
    ##  2 #85           male        4      13        7      12 con7        19.7
    ##  3 #1/2/95/2     male        5      13        7       9 con7        27  
    ##  4 #1/2/95/2     male        5      13        8      10 con7        27  
    ##  5 #5/5/3/83/3-3 male        5      13        8      10 con7        26  
    ##  6 #5/5/3/83/3-3 male        5      14        6       9 con7        26  
    ##  7 #5/4/2/95/2   male       NA      14        5       9 con7        28.5
    ##  8 #4/2/95/3-3   male        4      13        6       8 con7        NA  
    ##  9 #4/2/95/3-3   male        4      13        7       9 con7        NA  
    ## 10 #2/2/95/3-2   male        4      NA        8      10 con7        NA  
    ## # … with 305 more rows, and 5 more variables: gd18_weight <dbl>,
    ## #   gd_of_birth <int>, pups_born_alive <int>, pups_dead_birth <int>,
    ## #   wt_gain <dbl>
